Sampling-oriented modelling of cancer evolution
…
theme_set(theme_minimal())
AMLRO

<cevodata> dataset: AML (Shlush 2017)
Genome: hg19
SNV assays: Mutect2 (default)
CNV assays: FACETS (default)
11 cases, 22 samples, 2 samples per case
628090 mutations total, 48246 +/- 75250 mutations per case
SNVs:
# A tibble: 628,090 × 14
   sample_id chrom    pos ref   alt   FILTER ref_r…¹ alt_r…²   VAF    DP Varia…³
   <chr>     <chr>  <int> <chr> <chr> <chr>    <int>   <int> <dbl> <int> <chr>  
 1 AMLRO-1_… chr1  234432 A     G     PASS        50       6 0.112    56 interg…
 2 AMLRO-1_… chr1  526736 C     G     PASS        57       7 0.114    64 interg…
 3 AMLRO-1_… chr1  526736 C     G     PASS        57       5 0.093    62 interg…
 4 AMLRO-1_… chr1  532080 T     C     PASS        34       4 0.113    38 interg…
 5 AMLRO-1_… chr1  532080 T     C     PASS        41       4 0.106    45 interg…
 6 AMLRO-1_… chr1  534545 G     A     PASS        40       5 0.128    45 interg…
 7 AMLRO-1_… chr1  534545 G     A     PASS        27       2 0.096    29 interg…
 8 AMLRO-1_… chr1  559889 A     G     PASS        14       3 0.212    17 downst…
 9 AMLRO-1_… chr1  567489 T     C     PASS        46      25 0.325    71 upstre…
10 AMLRO-1_… chr1  567489 T     C     PASS        55      33 0.352    88 upstre…
# … with 628,080 more rows, 3 more variables: impact <chr>, gene_symbol <chr>,
#   entrez_id <chr>, and abbreviated variable names ¹​ref_reads, ²​alt_reads,
#   ³​Variant_Classification
CNVs:
# A tibble: 10,545 × 11
   sample_id   chrom  start    end log_r…¹   BAF total…² major…³ minor…⁴ .log_…⁵
   <chr>       <chr>  <int>  <int>   <dbl> <dbl>   <int>   <int>   <int>   <dbl>
 1 AMLRO-10_Dx chr1  1.75e4 2.58e6  0.0895    NA       2       1       1  0.137 
 2 AMLRO-10_Dx chr1  2.58e6 1.69e7  0.126     NA       2       1       1  0.0515
 3 AMLRO-10_Dx chr1  1.69e7 1.70e7  0.215     NA       3       2       1  0.116 
 4 AMLRO-10_Dx chr1  1.70e7 1.70e7  0.803     NA       5      NA      NA  0.145 
 5 AMLRO-10_Dx chr1  1.70e7 1.93e7  0.194     NA       2       1       1  0.0884
 6 AMLRO-10_Dx chr1  1.93e7 2.11e7  0.139     NA       2       1       1  0.122 
 7 AMLRO-10_Dx chr1  2.11e7 2.15e7 -0.0261    NA       2       1       1  0.231 
 8 AMLRO-10_Dx chr1  2.15e7 2.48e7  0.124     NA       2       1       1  0.0466
 9 AMLRO-10_Dx chr1  2.48e7 2.95e7  0.0846    NA       2       1       1  0.109 
10 AMLRO-10_Dx chr1  2.95e7 3.14e7  0.172     NA       2       1       1  0.0598
# … with 10,535 more rows, 1 more variable: .segclust <dbl>, and abbreviated
#   variable names ¹​log_ratio, ²​total_cn, ³​major_cn, ⁴​minor_cn,
#   ⁵​.log_odds_ratio
…
